{
	"type": "minecraft:crafting_shaped",
    "result": {
        "item": "invlink:router",
        "count": 1
    },
    "pattern": [
	"gdg",
    "peg",
    "gdg"
    ],
    "key": {
        "g": {
           "item": "minecraft:gold_ingot"
        },
        "p": {
           "item": "invlink:pipe",
           "data": 0
        },
        "e": {
	       "item": "minecraft:ender_pearl"
        },
        "d": {
           "item": "minecraft:diamond"
        }
    }
}
