{
	"type": "minecraft:crafting_shaped",
    "result": {
        "item": "invlink:teleport",
        "count": 2
    },
    "pattern": [
    "idi",
    "pei",
    "idi"
    ],
    "key": {
        "i": {
           "item": "minecraft:iron_ingot"
        },
        "p": {
           "item": "invlink:pipe",
           "data": 0
        },
        "e": {
           "item": "minecraft:ender_pearl"
        },
        "d": {
           "item": "minecraft:diamond"
        }
    }
}
