{
  "required": true,
  "minVersion": "0.8",
  "package": "dalapo.invlink.mixin",
  "compatibilityLevel": "JAVA_8",
  "mixins": [
  ],
  "client": [
  ],
  "injectors": {
    "defaultRequire": 1
  }
}
